(module 2-SMD (layer F.Cu) (tedit 61C8FA38)
  (fp_text reference REF** (at 0 -2) (layer F.SilkS)
    (effects (font (size 1 1) (thickness 0.15)))
  )
  (fp_text value 2-SMD (at 0 -2) (layer F.Fab)
    (effects (font (size 1 1) (thickness 0.15)))
  )
  (fp_line (start 3.0132 -1.1049) (end 3.0132 1.0541) (layer F.SilkS) (width 0.12))
  (fp_line (start 3.0132 1.0541) (end -2.8034 1.0541) (layer F.SilkS) (width 0.12))
  (fp_line (start -2.8034 -1.1049) (end 3.0132 -1.1049) (layer F.SilkS) (width 0.12))
  (fp_line (start -2.8034 1.0541) (end -2.8034 -1.1049) (layer F.SilkS) (width 0.12))
  (fp_line (start 2.8354 -1.0414) (end 2.8354 0.9906) (layer F.SilkS) (width 0.25))
  (fp_line (start 1.2606 0) (end 0.2827 0) (layer F.SilkS) (width 0.12))
  (fp_line (start -0.1992 0) (end 0.2827 -0.4699) (layer F.SilkS) (width 0.12))
  (fp_line (start 0.2827 -0.4699) (end 0.2827 0.4826) (layer F.SilkS) (width 0.12))
  (fp_line (start -0.1992 0) (end 0.2827 0.4826) (layer F.SilkS) (width 0.12))
  (fp_line (start -0.1992 0) (end -0.1992 -0.7112) (layer F.SilkS) (width 0.12))
  (fp_line (start -0.1992 0) (end -0.1992 0.7112) (layer F.SilkS) (width 0.12))
  (fp_line (start -1 0) (end -0.1992 0) (layer F.SilkS) (width 0.12))
  (fp_line (start 3.1877 -1.2446) (end 3.1877 1.2192) (layer F.CrtYd) (width 0.12))
  (fp_line (start 3.1877 1.2192) (end -2.9845 1.2192) (layer F.CrtYd) (width 0.12))
  (fp_line (start -2.9845 1.2192) (end -2.9845 -1.2446) (layer F.CrtYd) (width 0.12))
  (fp_line (start -2.9845 -1.2446) (end 3.1877 -1.2446) (layer F.CrtYd) (width 0.12))
  (fp_line (start -2.9845 -1.2446) (end 3.1877 -1.2446) (layer F.Fab) (width 0.12))
  (fp_line (start 3.1877 -1.2446) (end 3.1877 1.2192) (layer F.Fab) (width 0.12))
  (fp_line (start 3.1877 1.2192) (end -2.9845 1.2192) (layer F.Fab) (width 0.12))
  (fp_line (start -2.9845 1.2192) (end -2.9845 -1.2446) (layer F.Fab) (width 0.12))
  (fp_line (start -1 0) (end -0.1992 0) (layer F.Fab) (width 0.12))
  (fp_line (start -0.1992 0) (end -0.1992 -0.7112) (layer F.Fab) (width 0.12))
  (fp_line (start -0.1992 0) (end -0.1992 0.7112) (layer F.Fab) (width 0.12))
  (fp_line (start -0.1992 0) (end 0.2827 -0.4699) (layer F.Fab) (width 0.12))
  (fp_line (start -0.1992 0) (end 0.2827 0.4826) (layer F.Fab) (width 0.12))
  (fp_line (start 0.2827 -0.4699) (end 0.2827 0.4826) (layer F.Fab) (width 0.12))
  (fp_line (start 1.2606 0) (end 0.2827 0) (layer F.Fab) (width 0.12))
  (fp_line (start 2.8354 -1.0414) (end 2.8354 0.9906) (layer F.Fab) (width 0.25))
  (pad 1 smd rect (at 2.0734 0) (size 1.27 1.47) (layers F.Cu F.Paste F.Mask))
  (pad 2 smd rect (at -1.7996 -0.0381) (size 1.27 1.47) (layers F.Cu F.Paste F.Mask))
)
