(module AMPHENOL_UE27AC54100 (layer F.Cu) (tedit 5F84C3B9)
  (fp_text reference REF** (at -5.325 -2.385) (layer F.SilkS)
    (effects (font (size 1 1) (thickness 0.015)))
  )
  (fp_text value AMPHENOL_UE27AC54100 (at 4.2 14.385) (layer F.Fab)
    (effects (font (size 1 1) (thickness 0.015)))
  )
  (fp_line (start -6.55 -0.86) (end 6.55 -0.86) (layer F.Fab) (width 0.127))
  (fp_line (start 6.55 -0.86) (end 6.55 12.99) (layer F.Fab) (width 0.127))
  (fp_line (start 6.55 12.99) (end -6.55 12.99) (layer F.Fab) (width 0.127))
  (fp_line (start -6.55 12.99) (end -6.55 6.44) (layer F.Fab) (width 0.127))
  (fp_line (start -6.55 6.44) (end -6.55 -0.86) (layer F.Fab) (width 0.127))
  (fp_line (start -6.55 4.74) (end -6.55 12.99) (layer F.SilkS) (width 0.127))
  (fp_line (start -6.55 12.99) (end 6.55 12.99) (layer F.SilkS) (width 0.127))
  (fp_line (start 6.55 12.99) (end 6.55 4.74) (layer F.SilkS) (width 0.127))
  (fp_line (start -6.55 0.68) (end -6.55 -0.86) (layer F.SilkS) (width 0.127))
  (fp_line (start -6.55 -0.86) (end -4.58 -0.86) (layer F.SilkS) (width 0.127))
  (fp_line (start 4.58 -0.86) (end 6.55 -0.86) (layer F.SilkS) (width 0.127))
  (fp_line (start 6.55 -0.86) (end 6.55 0.68) (layer F.SilkS) (width 0.127))
  (fp_line (start -8.52 -1.11) (end -8.52 13.25) (layer F.CrtYd) (width 0.05))
  (fp_line (start -8.52 13.25) (end 8.52 13.25) (layer F.CrtYd) (width 0.05))
  (fp_line (start 8.52 13.25) (end 8.52 -1.11) (layer F.CrtYd) (width 0.05))
  (fp_line (start 8.52 -1.11) (end -8.52 -1.11) (layer F.CrtYd) (width 0.05))
  (fp_circle (center -7 -0.5) (end -6.9 -0.5) (layer F.Fab) (width 0.2))
  (fp_circle (center -7 -0.5) (end -6.9 -0.5) (layer F.SilkS) (width 0.2))
  (pad 1 thru_hole rect (at -3.5 0) (size 1.508 1.508) (drill 1) (layers *.Cu *.Mask))
  (pad 2 thru_hole circle (at -1 0) (size 1.508 1.508) (drill 1) (layers *.Cu *.Mask))
  (pad 3 thru_hole circle (at 1 0) (size 1.508 1.508) (drill 1) (layers *.Cu *.Mask))
  (pad 4 thru_hole circle (at 3.5 0) (size 1.508 1.508) (drill 1) (layers *.Cu *.Mask))
  (pad 5 thru_hole circle (at -6.57 2.71) (size 3.396 3.396) (drill 2.38) (layers *.Cu *.Mask))
  (pad 5 thru_hole circle (at 6.57 2.71) (size 3.396 3.396) (drill 2.38) (layers *.Cu *.Mask))
  (model ${CUSTOMPRETTY}/UE27AC54100--3DModel-stp-56544.stp
    (offset (xyz 0 -5.9 -3.5))
    (scale (xyz 1 1 1))
    (rotate (xyz -90 0 0))
  )
)
