(module DPST_wire-10awg_2 (layer F.Cu) (tedit 60E175E1)
  (fp_text reference REF** (at 0 -4.5) (layer F.SilkS)
    (effects (font (size 1 1) (thickness 0.15)))
  )
  (fp_text value DPST_wire-10awg_2 (at 0 -5.5) (layer F.Fab)
    (effects (font (size 1 1) (thickness 0.15)))
  )
  (pad 1 thru_hole circle (at -6.01726 -0.1905) (size 5 5) (drill 2.75) (layers *.Cu *.Mask))
  (pad 2 thru_hole circle (at -0.01726 -0.1905) (size 5 5) (drill 2.75) (layers *.Cu *.Mask))
  (pad 3 thru_hole circle (at 5.98274 -0.1905) (size 5 5) (drill 2.75) (layers *.Cu *.Mask))
  (pad 4 thru_hole circle (at 11.98274 -0.1905) (size 5 5) (drill 2.75) (layers *.Cu *.Mask))
)
