(footprint "MOLEX_530470510" (version 20211014) (generator pcbnew)
  (layer "F.Cu")
  (tedit 6295DCA0)
  (attr through_hole)
  (fp_text reference "REF**" (at -4.325 -3.635) (layer "F.SilkS")
    (effects (font (size 1 1) (thickness 0.15)))
    (tstamp 77364d4b-f7ee-4b39-a733-623c1271737b)
  )
  (fp_text value "MOLEX_530470510" (at 2.025 4.365) (layer "F.Fab")
    (effects (font (size 1 1) (thickness 0.15)))
    (tstamp 231f68b5-9a51-4b60-8182-f0cc9a2c5667)
  )
  (fp_text user "PTH D0.5 +/- 0.05" (at -7.5 7) (layer "F.Fab")
    (effects (font (size 0.393701 0.393701) (thickness 0.15)))
    (tstamp c5890088-4b33-4f74-823a-b2bcbf345184)
  )
  (fp_line (start 2.3 0.3) (end 1.8 0) (layer "F.SilkS") (width 0.127) (tstamp 198d42ac-fc79-46ad-a195-037cfa2ca425))
  (fp_line (start 1.5 -1.15) (end 1.5 2.05) (layer "F.SilkS") (width 0.127) (tstamp 8c5ba2d5-5566-41fc-8f7d-e7185da78bad))
  (fp_line (start 1.5 2.05) (end -6.5 2.05) (layer "F.SilkS") (width 0.127) (tstamp c37b6543-1fd6-4319-8589-a7a138cedf0f))
  (fp_line (start 2.3 -0.3) (end 2.3 0.3) (layer "F.SilkS") (width 0.127) (tstamp cac5aa45-4b0b-4c55-aa20-8cf6a26b6939))
  (fp_line (start -6.5 2.05) (end -6.5 -1.15) (layer "F.SilkS") (width 0.127) (tstamp cb52758d-1aea-4f87-a916-f2619caa988b))
  (fp_line (start 1.8 0) (end 2.3 -0.3) (layer "F.SilkS") (width 0.127) (tstamp d34f251b-0604-4e47-8e6b-7ba63c63c928))
  (fp_line (start -6.5 -1.15) (end 1.5 -1.15) (layer "F.SilkS") (width 0.127) (tstamp dc1a1ef9-fa58-4929-aca5-79301f28640d))
  (fp_circle (center -2.5 0) (end -2.2494 0) (layer "B.Mask") (width 0.5012) (fill none) (tstamp 41dc8336-7b73-4bdd-85a7-167824e699c1))
  (fp_circle (center -1.25 0) (end -0.9994 0) (layer "B.Mask") (width 0.5012) (fill none) (tstamp 625d964c-a7ec-49d1-b793-59a4c7946a6c))
  (fp_circle (center -3.75 0) (end -3.4994 0) (layer "B.Mask") (width 0.5012) (fill none) (tstamp 7bcb97d8-bbd1-4614-81c9-f67d2915fce0))
  (fp_circle (center -5 0) (end -4.7494 0) (layer "B.Mask") (width 0.5012) (fill none) (tstamp 88ffd334-7543-42ba-af84-6f84de1e758a))
  (fp_poly (pts
      (xy -0.5012 -0.5012)
      (xy 0.5012 -0.5012)
      (xy 0.5012 0.5012)
      (xy -0.5012 0.5012)
    ) (layer "B.Mask") (width 0.01) (fill solid) (tstamp 6e59a6ad-fa19-49e7-8af7-c1cc0e50e8b4))
  (fp_circle (center -2.5 0) (end -2.2494 0) (layer "F.Mask") (width 0.5012) (fill none) (tstamp 26c9782c-566b-4d70-a72d-4d4dc74ad546))
  (fp_circle (center -1.25 0) (end -0.9994 0) (layer "F.Mask") (width 0.5012) (fill none) (tstamp 87eb9082-68cb-4be2-9c88-4c8a617afe9d))
  (fp_circle (center -3.75 0) (end -3.4994 0) (layer "F.Mask") (width 0.5012) (fill none) (tstamp b8ccebde-49c7-48a1-b928-d8b433af0e9d))
  (fp_circle (center -5 0) (end -4.7494 0) (layer "F.Mask") (width 0.5012) (fill none) (tstamp d3ab2ef7-2b5a-4234-99c4-8125a9c7690f))
  (fp_poly (pts
      (xy -0.5012 -0.5012)
      (xy 0.5012 -0.5012)
      (xy 0.5012 0.5012)
      (xy -0.5012 0.5012)
    ) (layer "F.Mask") (width 0.01) (fill solid) (tstamp 40c0adec-9dd2-4edb-9996-9467b8864189))
  (fp_line (start -7.77 -2.42) (end 2.77 -2.42) (layer "F.CrtYd") (width 0.05) (tstamp 4e6a8fac-b667-4dcf-9ce7-a7ff7dfa27e2))
  (fp_line (start 2.77 3.32) (end -7.77 3.32) (layer "F.CrtYd") (width 0.05) (tstamp 5883257e-23b9-4136-836a-e29d854392d0))
  (fp_line (start -7.77 3.32) (end -7.77 -2.42) (layer "F.CrtYd") (width 0.05) (tstamp 8d2804ee-97f9-4bcf-b951-2967c40f575f))
  (fp_line (start 2.77 -2.42) (end 2.77 3.32) (layer "F.CrtYd") (width 0.05) (tstamp cf491b15-6863-4215-aa24-1fde5aa27341))
  (fp_line (start 1.8 0) (end 2.3 -0.3) (layer "F.Fab") (width 0.127) (tstamp 0861608f-4f27-440f-8b1a-f6c26dd1e46e))
  (fp_line (start 2.3 -0.3) (end 2.3 0.3) (layer "F.Fab") (width 0.127) (tstamp 64c8a23b-453a-4831-a39f-eced30bf9b2c))
  (fp_line (start -6.5 -1.15) (end 1.5 -1.15) (layer "F.Fab") (width 0.127) (tstamp 7f038baf-308e-4485-be89-a6b73cac12d2))
  (fp_line (start -6.5 2.05) (end -6.5 -1.15) (layer "F.Fab") (width 0.127) (tstamp 816424d4-6f6d-4041-97b3-f9e0ee233a6e))
  (fp_line (start 1.5 -1.15) (end 1.5 2.05) (layer "F.Fab") (width 0.127) (tstamp a343fb4d-4450-4bb5-b1f8-7d5009d1ca26))
  (fp_line (start 1.5 2.05) (end -6.5 2.05) (layer "F.Fab") (width 0.127) (tstamp ce1498f0-f3ef-4005-9ec2-da059e116378))
  (fp_line (start 2.3 0.3) (end 1.8 0) (layer "F.Fab") (width 0.127) (tstamp ce4bdbbc-c65e-4fe7-a44a-9b1d86b570d2))
  (pad "1" thru_hole rect (at 0 0) (size 0.85 0.85) (drill 0.5) (layers *.Cu) (tstamp 0825a2d1-3268-4971-84bd-68142e1c2a76))
  (pad "2" thru_hole circle (at -1.25 0) (size 0.85 0.85) (drill 0.5) (layers *.Cu) (tstamp 4decd512-1688-47a8-9571-3c2b5e4da306))
  (pad "3" thru_hole circle (at -2.5 0) (size 0.85 0.85) (drill 0.5) (layers *.Cu) (tstamp 74005efa-7a30-4570-8846-2275c3cb4c73))
  (pad "4" thru_hole circle (at -3.75 0) (size 0.85 0.85) (drill 0.5) (layers *.Cu) (tstamp fc3aa4a4-dcf8-45c9-b67b-133f71d88aa6))
  (pad "5" thru_hole circle (at -5 0) (size 0.85 0.85) (drill 0.5) (layers *.Cu) (tstamp b1f31766-8885-4d64-bc6e-8668ccd88e94))
  (model "${CUSTOMPRETTY}/530470510.stp"
    (offset (xyz -2.5 -0.5 3.3))
    (scale (xyz 1 1 1))
    (rotate (xyz -90 0 0))
  )
)
