(footprint "MOLEX_530470410" (version 20211014) (generator pcbnew)
  (layer "F.Cu")
  (tedit 6295257A)
  (descr "<b>HEADER</b>")
  (attr through_hole)
  (fp_text reference "REF**" (at -0.889 -2.159) (layer "F.SilkS")
    (effects (font (size 0.8 0.8) (thickness 0.15)))
    (tstamp 1ded35b1-af8e-4562-ab71-37225cddb437)
  )
  (fp_text value "53047-0410" (at 0.508 2.8956) (layer "F.Fab")
    (effects (font (size 0.64 0.64) (thickness 0.15)))
    (tstamp 54919e6c-20cd-4c46-acb9-acccf2814f16)
  )
  (fp_line (start 3.485 -1.25) (end 3.485 2.15) (layer "F.SilkS") (width 0.2032) (tstamp 2a9a5ca0-65d7-4c73-b5ee-72de93512d8c))
  (fp_line (start -3.485 -1.25) (end 3.485 -1.25) (layer "F.SilkS") (width 0.2032) (tstamp b83f2ff9-30b5-4521-9b28-35895f059842))
  (fp_line (start -3.485 2.15) (end -3.485 -1.25) (layer "F.SilkS") (width 0.2032) (tstamp ceb6e63e-8175-4edb-9bda-56a7e97d6f90))
  (fp_line (start 3.485 2.15) (end -3.485 2.15) (layer "F.SilkS") (width 0.2032) (tstamp d14a37fd-f958-420e-8735-1cbea19cc84c))
  (fp_poly (pts
      (xy 2.921 1.651)
      (xy 3.175 1.651)
      (xy 3.048 1.905)
    ) (layer "F.SilkS") (width 0.0508) (fill solid) (tstamp a6b83804-a91c-4199-b28a-90265a5a6369))
  (fp_line (start -2.794 1.651) (end -3.048 1.651) (layer "F.Fab") (width 0.0508) (tstamp 0804113d-0096-4eeb-9d90-53423094f95a))
  (fp_line (start -3.048 -0.889) (end 3.048 -0.889) (layer "F.Fab") (width 0.0508) (tstamp 1ac24695-9bba-4286-bc29-54ba09a06a80))
  (fp_line (start 3.048 1.651) (end 2.794 1.651) (layer "F.Fab") (width 0.0508) (tstamp 27d2980c-5e27-4c3a-a8fd-e2de6d8da800))
  (fp_line (start -3.048 0.762) (end -3.048 0.127) (layer "F.Fab") (width 0.0508) (tstamp 2832f7a9-d25b-47e0-84c2-33dd1382d500))
  (fp_line (start -2.794 -0.635) (end 2.794 -0.635) (layer "F.Fab") (width 0.0508) (tstamp 39b74bc9-1e19-446e-b349-f89d2dec1be1))
  (fp_line (start -2.54 1.651) (end -2.794 1.651) (layer "F.Fab") (width 0.0508) (tstamp 3a0a66ba-b386-4b03-b493-38a8e548104e))
  (fp_line (start 2.794 1.8161) (end -2.794 1.8161) (layer "F.Fab") (width 0.0508) (tstamp 402ecbcd-3292-4e16-a0b8-504a9894dbe6))
  (fp_line (start 2.794 0.762) (end 3.048 0.762) (layer "F.Fab") (width 0.0508) (tstamp 4a8c96d3-8d27-4e89-a7cd-56d0f6ab37f6))
  (fp_line (start 2.54 1.651) (end -2.54 1.651) (layer "F.Fab") (width 0.0508) (tstamp 4c2cf9b9-a46f-4faa-be78-ca4d8ae182d5))
  (fp_line (start 2.794 1.651) (end 2.54 1.651) (layer "F.Fab") (width 0.0508) (tstamp 4c4d7dc2-8022-480b-88f8-b3d2bfd1f979))
  (fp_line (start 2.794 -0.635) (end 2.794 0.127) (layer "F.Fab") (width 0.0508) (tstamp 5b31988b-039d-4539-acca-a17f8a8a4d5b))
  (fp_line (start -2.794 0.762) (end -2.794 1.651) (layer "F.Fab") (width 0.0508) (tstamp 5df5f66e-cb19-41d4-8840-783b6e5741d5))
  (fp_line (start 3.402 1.651) (end 3.048 1.651) (layer "F.Fab") (width 0.0508) (tstamp 5fef99ae-b008-4016-b1fd-61f5d39e427e))
  (fp_line (start -2.794 1.8161) (end -2.794 1.651) (layer "F.Fab") (width 0.0508) (tstamp 6215dea0-1217-477f-92b1-e4ed66fa1c8c))
  (fp_line (start -2.54 1.651) (end -2.54 2.032) (layer "F.Fab") (width 0.0508) (tstamp 6a5bf717-b486-4522-a3f7-d99af58111ba))
  (fp_line (start 3.048 0.127) (end 3.048 0.762) (layer "F.Fab") (width 0.0508) (tstamp 6f401cd5-6fcd-42a2-8553-cd2c7eadfc38))
  (fp_line (start 2.54 1.651) (end 2.54 2.032) (layer "F.Fab") (width 0.0508) (tstamp 86d29e45-6408-43b9-b650-4ac05bf74536))
  (fp_line (start 2.794 -0.635) (end 3.048 -0.889) (layer "F.Fab") (width 0.0508) (tstamp 9725cb9a-ae12-48d4-8079-3b73f69e7240))
  (fp_line (start -3.048 0.127) (end -2.794 0.127) (layer "F.Fab") (width 0.0508) (tstamp 9b2b43a9-7621-4833-89ef-c6248ee01130))
  (fp_line (start 2.794 1.651) (end 2.794 0.762) (layer "F.Fab") (width 0.0508) (tstamp a48772e8-45a2-420d-8ce0-b92c386d8d8e))
  (fp_line (start -3.048 1.651) (end -3.402 1.651) (layer "F.Fab") (width 0.0508) (tstamp a8ac4108-c858-437d-a85e-986bf29c5d82))
  (fp_line (start -2.794 0.127) (end -2.794 -0.635) (layer "F.Fab") (width 0.0508) (tstamp b1c1aa26-5ea2-445c-a17c-04a6912db423))
  (fp_line (start 2.794 1.651) (end 2.794 1.8161) (layer "F.Fab") (width 0.0508) (tstamp d8bf22df-06dc-409e-a9c0-075eb8878715))
  (fp_line (start -2.794 -0.635) (end -3.048 -0.889) (layer "F.Fab") (width 0.0508) (tstamp dd0652b1-7927-425a-ba31-d4a3c6ddf0eb))
  (fp_line (start 3.048 0.762) (end 3.048 1.651) (layer "F.Fab") (width 0.0508) (tstamp de9e08d0-0532-44ee-8533-b5c93b55feb2))
  (fp_line (start -3.048 1.651) (end -3.048 0.762) (layer "F.Fab") (width 0.0508) (tstamp e9ad3501-e482-49d8-ab77-93cb791aa53f))
  (fp_line (start -3.048 0.762) (end -2.794 0.762) (layer "F.Fab") (width 0.0508) (tstamp f270cd6b-a35c-4a56-b538-47dde06580fd))
  (fp_line (start 2.794 0.127) (end 3.048 0.127) (layer "F.Fab") (width 0.0508) (tstamp f360b331-460a-4170-a9f9-041fe2780bdf))
  (fp_line (start 3.048 -0.889) (end 3.048 0.127) (layer "F.Fab") (width 0.0508) (tstamp f527cdd4-99e2-4665-94ab-800343fee043))
  (fp_line (start -3.048 0.127) (end -3.048 -0.889) (layer "F.Fab") (width 0.0508) (tstamp fb38be99-9910-4f4f-917c-1f96d68a08a3))
  (fp_poly (pts
      (xy -0.879 -0.508)
      (xy -0.371 -0.508)
      (xy -0.371 0.508)
      (xy -0.879 0.508)
    ) (layer "F.Fab") (width 0.01) (fill solid) (tstamp 50ca6ee8-090f-4731-8172-a431bebbdab3))
  (fp_poly (pts
      (xy -2.129 -0.508)
      (xy -1.621 -0.508)
      (xy -1.621 0.508)
      (xy -2.129 0.508)
    ) (layer "F.Fab") (width 0.01) (fill solid) (tstamp 524bc629-9291-4e07-b62c-fde2e866f54d))
  (fp_poly (pts
      (xy 0.371 -0.508)
      (xy 0.879 -0.508)
      (xy 0.879 0.508)
      (xy 0.371 0.508)
    ) (layer "F.Fab") (width 0.01) (fill solid) (tstamp 770bc60b-8d2d-49bc-b774-0387ef62ce3e))
  (fp_poly (pts
      (xy 1.621 -0.508)
      (xy 2.129 -0.508)
      (xy 2.129 0.508)
      (xy 1.621 0.508)
    ) (layer "F.Fab") (width 0.01) (fill solid) (tstamp ce5a5ee1-868a-4cd2-a47a-344ae28c32e6))
  (pad "1" thru_hole oval (at 1.875 0) (size 1.016 2.032) (drill 0.508) (layers *.Cu *.Mask) (tstamp 89eeb8f9-650f-45d5-b207-49994cdce700))
  (pad "2" thru_hole oval (at 0.625 0) (size 1.016 2.032) (drill 0.508) (layers *.Cu *.Mask) (tstamp 7d46b6b6-e03a-4bce-9163-0fe6eaeb09ac))
  (pad "3" thru_hole oval (at -0.625 0) (size 1.016 2.032) (drill 0.508) (layers *.Cu *.Mask) (tstamp dd1c80ba-f413-403e-bb58-f232bf3a0fea))
  (pad "4" thru_hole oval (at -1.875 0) (size 1.016 2.032) (drill 0.508) (layers *.Cu *.Mask) (tstamp 56365f9f-bfc5-4762-9179-4cccd3911ebc))
  (model "${CUSTOMPRETTY}/530470410.stp"
    (offset (xyz 0 -0.5 3.1))
    (scale (xyz 1 1 1))
    (rotate (xyz -90 0 0))
  )
)
