(footprint "MOLEX_530470310" (version 20211014) (generator pcbnew)
  (layer "F.Cu")
  (tedit 6295DCEB)
  (attr through_hole)
  (fp_text reference "REF**" (at -1.825 -3.635) (layer "F.SilkS")
    (effects (font (size 1 1) (thickness 0.15)))
    (tstamp ced67ccc-13af-48c0-afe0-723ba7aca7fc)
  )
  (fp_text value "MOLEX_530470310" (at 4.525 4.365) (layer "F.Fab")
    (effects (font (size 1 1) (thickness 0.15)))
    (tstamp 3e53647e-d69a-475c-b7d6-3929a69b1baa)
  )
  (fp_text user "PTH D0.5 +/- 0.05" (at -5 7) (layer "F.Fab")
    (effects (font (size 0.393701 0.393701) (thickness 0.15)))
    (tstamp 2ea996b8-da65-49b0-a5b3-30f62055bee3)
  )
  (fp_line (start 1.8 0) (end 2.3 -0.3) (layer "F.SilkS") (width 0.127) (tstamp 47287927-bee7-4f4e-9fd2-24283a5a958a))
  (fp_line (start 2.3 -0.3) (end 2.3 0.3) (layer "F.SilkS") (width 0.127) (tstamp 56d95ff4-442e-48c5-83e7-62fefd42e5a8))
  (fp_line (start 1.5 2.05) (end -4 2.05) (layer "F.SilkS") (width 0.127) (tstamp 98ba115a-fd8f-42b8-9413-2519a87929db))
  (fp_line (start 1.5 -1.15) (end 1.5 2.05) (layer "F.SilkS") (width 0.127) (tstamp 9e37a311-85ad-4123-803b-e97906ef0cb8))
  (fp_line (start -4 2.05) (end -4 -1.15) (layer "F.SilkS") (width 0.127) (tstamp b93e9747-5dc9-4922-81e0-6e63fcdd95b0))
  (fp_line (start 2.3 0.3) (end 1.8 0) (layer "F.SilkS") (width 0.127) (tstamp ed8b9077-cb27-4ab4-864b-52c455736b4d))
  (fp_line (start -4 -1.15) (end 1.5 -1.15) (layer "F.SilkS") (width 0.127) (tstamp fd2d4918-f75d-4e5a-9866-330194a2ba4e))
  (fp_circle (center -2.5 0) (end -2.2494 0) (layer "B.Mask") (width 0.5012) (fill none) (tstamp 1364c26e-f861-45c9-8bc9-c267da77564b))
  (fp_circle (center -1.25 0) (end -0.9994 0) (layer "B.Mask") (width 0.5012) (fill none) (tstamp 71de1ac1-48d8-4209-9572-de26c38b478b))
  (fp_poly (pts
      (xy -0.5012 -0.5012)
      (xy 0.5012 -0.5012)
      (xy 0.5012 0.5012)
      (xy -0.5012 0.5012)
    ) (layer "B.Mask") (width 0.01) (fill solid) (tstamp c0ed4fcd-0d1c-41ad-9f9e-9f75090aa66a))
  (fp_circle (center -1.25 0) (end -0.9994 0) (layer "F.Mask") (width 0.5012) (fill none) (tstamp 703a7d55-586b-4d28-aa25-777990ebff29))
  (fp_circle (center -2.5 0) (end -2.2494 0) (layer "F.Mask") (width 0.5012) (fill none) (tstamp c3003134-8e4b-4fa0-8066-fa41f3719f1c))
  (fp_poly (pts
      (xy -0.5012 -0.5012)
      (xy 0.5012 -0.5012)
      (xy 0.5012 0.5012)
      (xy -0.5012 0.5012)
    ) (layer "F.Mask") (width 0.01) (fill solid) (tstamp 24abaaa7-21a8-4681-90e5-12f01fa3cfdc))
  (fp_line (start 2.77 -2.42) (end 2.77 3.32) (layer "F.CrtYd") (width 0.05) (tstamp 23231e3c-e2d6-4668-aa60-05e1b60e4785))
  (fp_line (start -5.27 3.32) (end -5.27 -2.42) (layer "F.CrtYd") (width 0.05) (tstamp 83ac933c-fe11-4079-ad58-8ed212262dee))
  (fp_line (start -5.27 -2.42) (end 2.77 -2.42) (layer "F.CrtYd") (width 0.05) (tstamp 91b36539-b931-467d-b7a9-f0c659ab0fa7))
  (fp_line (start 2.77 3.32) (end -5.27 3.32) (layer "F.CrtYd") (width 0.05) (tstamp edc70c1f-5ea4-4f28-ba50-a876bad1a78f))
  (fp_line (start 2.3 0.3) (end 1.8 0) (layer "F.Fab") (width 0.127) (tstamp 13bfa4d9-eca9-4684-a721-fed19e9df816))
  (fp_line (start 1.5 2.05) (end -4 2.05) (layer "F.Fab") (width 0.127) (tstamp 5b7c289b-7296-4cbb-aa28-5f266811df2f))
  (fp_line (start -4 -1.15) (end 1.5 -1.15) (layer "F.Fab") (width 0.127) (tstamp ac522866-b459-4206-bc1b-0554a6e15726))
  (fp_line (start -4 2.05) (end -4 -1.15) (layer "F.Fab") (width 0.127) (tstamp b9eb7cd4-f72b-4b73-891e-40f3f753c078))
  (fp_line (start 2.3 -0.3) (end 2.3 0.3) (layer "F.Fab") (width 0.127) (tstamp c72fd354-a28d-4f46-aacd-9d2329f7301f))
  (fp_line (start 1.8 0) (end 2.3 -0.3) (layer "F.Fab") (width 0.127) (tstamp deb1114f-da1b-455a-a56b-d30140fbb739))
  (fp_line (start 1.5 -1.15) (end 1.5 2.05) (layer "F.Fab") (width 0.127) (tstamp dfa53f26-da1e-417e-bb81-54e1dc41a79d))
  (pad "1" thru_hole rect (at 0 0) (size 0.85 0.85) (drill 0.5) (layers *.Cu) (tstamp 4c968165-5bcb-44f5-b19b-ce257b300f2b))
  (pad "2" thru_hole circle (at -1.25 0) (size 0.85 0.85) (drill 0.5) (layers *.Cu) (tstamp cd916f48-4e9b-406d-b33b-be26cd97262e))
  (pad "3" thru_hole circle (at -2.5 0) (size 0.85 0.85) (drill 0.5) (layers *.Cu) (tstamp ecfdb8ec-4b7a-4d8a-bb08-dc4d4aa4cfbd))
  (model "${CUSTOMPRETTY}/530470310.stp"
    (offset (xyz -1.25 -0.5 3.25))
    (scale (xyz 1 1 1))
    (rotate (xyz -90 0 0))
  )
)
