(module MountingHole_4.2mm_Standoff (layer F.Cu) (tedit 60AA2566)
  (descr "Mounting Hole 4.2mm, Standoff")
  (tags "Mounting Hole 4.2 Standoff")
  (attr virtual)
  (fp_text reference REF** (at 0 -4.3) (layer F.Fab)
    (effects (font (size 1 1) (thickness 0.15)))
  )
  (fp_text value MountingHole_4.2mm_Standoff (at 0 4.3) (layer F.Fab)
    (effects (font (size 1 1) (thickness 0.15)))
  )
  (fp_circle (center 0 0) (end 3.45948 0) (layer F.CrtYd) (width 0.05))
  (fp_circle (center 0 0) (end 3.33756 0) (layer Cmts.User) (width 0.15))
  (fp_text user %R (at 0.3 0) (layer F.Fab)
    (effects (font (size 1 1) (thickness 0.15)))
  )
  (pad 1 thru_hole circle (at 0 0) (size 6.3 6.3) (drill 4.199) (layers *.Cu *.Mask F.Paste))
  (model ${CUSTOMPRETTY}/keystone-PN24884.stp
    (offset (xyz 0 0 -1.46))
    (scale (xyz 1 1 1))
    (rotate (xyz -90 0 0))
  )
)
