(module PA4343.223ANLT (layer F.Cu) (tedit 5E65E789)
  (fp_text reference REF** (at 0.1016 -8.2296) (layer F.SilkS)
    (effects (font (size 1 1) (thickness 0.15)))
  )
  (fp_text value PA4343_Footprint1 (at 0.4064 7.7216) (layer F.Fab)
    (effects (font (size 1 1) (thickness 0.15)))
  )
  (fp_line (start -5.9436 -6.9596) (end -5.9436 6.6294) (layer F.SilkS) (width 0.12))
  (fp_line (start -5.9436 6.6294) (end 6.5024 6.6294) (layer F.SilkS) (width 0.12))
  (fp_line (start 6.5024 6.6294) (end 6.5024 -6.9596) (layer F.SilkS) (width 0.12))
  (fp_line (start 6.5024 -6.9596) (end -5.9436 -6.9596) (layer F.SilkS) (width 0.12))
  (pad 2 smd rect (at 6.35 -0.1016 90) (size 5 2.3) (layers F.Cu F.Paste F.Mask))
  (pad 1 smd rect (at -5.842 -0.0508 90) (size 5 2.3) (layers F.Cu F.Paste F.Mask))
)
