(module PROGRAM_3v3 (layer F.Cu) (tedit 5FAB5E7F)
  (fp_text reference REF** (at 0.0254 -2.1336) (layer F.SilkS)
    (effects (font (size 0.71 0.71) (thickness 0.15)))
  )
  (fp_text value PROGRAM_3v3 (at 0 -0.5) (layer F.Fab)
    (effects (font (size 0.71 0.71) (thickness 0.15)))
  )
  (fp_line (start 1.8542 -1.0414) (end 1.8542 1.0922) (layer F.CrtYd) (width 0.12))
  (fp_line (start 1.8542 1.0922) (end -1.778 1.0922) (layer F.CrtYd) (width 0.12))
  (fp_line (start -1.778 1.0922) (end -1.778 -1.0414) (layer F.CrtYd) (width 0.12))
  (fp_line (start -1.778 -1.0414) (end 1.8542 -1.0414) (layer F.CrtYd) (width 0.12))
  (pad 1 smd roundrect (at 0.04572 0.03556) (size 3 1.5) (layers F.Cu B.Paste F.Mask) (roundrect_rratio 0.25)
    (solder_mask_margin 0.25) (clearance 0.25))
)
