(footprint "SERIAL_LABEL" (version 20211014) (generator pcbnew)
  (layer "F.Cu")
  (tedit 0)
  (fp_text reference "REF**" (at 0 -0.5 unlocked) (layer "F.Fab") hide
    (effects (font (size 1 1) (thickness 0.15)))
    (tstamp 612b6d40-926e-45c6-ae79-e709f4ff2ff2)
  )
  (fp_text value "SERIAL LABEL" (at 0.597311 -0.285789 unlocked) (layer "F.Fab")
    (effects (font (size 4 4) (thickness 0.8)))
    (tstamp f5b2337a-eefb-4435-b43e-7bc90d8c4ef7)
  )
  (fp_line (start -27 2) (end -27 -0.692189) (layer "F.SilkS") (width 0.5) (tstamp 2787d371-4409-4522-baf2-f41cd344a751))
  (fp_line (start -26.9619 -3.629978) (end -26.9619 -0.937789) (layer "F.SilkS") (width 0.5) (tstamp 4ffa0a2f-dbb4-42a2-ac11-ac59a8168f77))
  (fp_line (start -25.437689 -5.154189) (end 28.181711 -5.154189) (layer "F.SilkS") (width 0.5) (tstamp 99c19ad6-1186-49ee-a50d-35d70ea6a1f2))
  (fp_line (start 29.807522 -3.629978) (end 29.807522 -0.937789) (layer "F.SilkS") (width 0.5) (tstamp c6d560a8-f78f-4f3e-a42e-75c625965ceb))
  (fp_line (start 28.245211 3.524211) (end -25.374189 3.524211) (layer "F.SilkS") (width 0.5) (tstamp f11b7442-1bb0-4203-81bd-0c88791ef5dc))
  (fp_line (start 29.769422 2) (end 29.769422 -0.692189) (layer "F.SilkS") (width 0.5) (tstamp f895a36d-2a20-4ee4-8642-63708ed8c1f1))
  (fp_arc (start -26.9619 -3.629978) (mid -26.515469 -4.707758) (end -25.437689 -5.154189) (layer "F.SilkS") (width 0.5) (tstamp 0362bfdf-01a2-4948-903b-f2ec63de0ab9))
  (fp_arc (start -25.475789 3.524211) (mid -26.553569 3.07778) (end -27 2) (layer "F.SilkS") (width 0.5) (tstamp a2b16f17-a693-4545-821c-4ea93f2291f8))
  (fp_arc (start 29.769422 2) (mid 29.322991 3.07778) (end 28.245211 3.524211) (layer "F.SilkS") (width 0.5) (tstamp b2a40dbe-91cc-47ed-a51e-4afe56813f6f))
  (fp_arc (start 28.283311 -5.154189) (mid 29.361091 -4.707758) (end 29.807522 -3.629978) (layer "F.SilkS") (width 0.5) (tstamp dcad3a91-57e1-4c24-b2a6-ca66b94aed20))
  (fp_rect (start 29.9974 -5.461) (end -27.2492 3.81) (layer "F.CrtYd") (width 0.2) (fill none) (tstamp 29562afe-14bf-4e65-a51c-562217f14ccf))
  (fp_line (start 29.807522 -3.629978) (end 29.807522 -0.937789) (layer "F.Fab") (width 0.5) (tstamp 1f615baf-d6ea-40c4-988a-bd7ce44a9fd1))
  (fp_line (start 29.769422 2) (end 29.769422 -0.692189) (layer "F.Fab") (width 0.5) (tstamp 2b5051e6-2bed-44e6-bf98-9062c70a1238))
  (fp_line (start -25.437689 -5.154189) (end 28.181711 -5.154189) (layer "F.Fab") (width 0.5) (tstamp 586e2ac9-dca7-4533-9026-351cd2c77449))
  (fp_line (start -27 2) (end -27 -0.692189) (layer "F.Fab") (width 0.5) (tstamp 8ea5e55b-1649-455e-8978-41e2b52d4414))
  (fp_line (start 28.245211 3.524211) (end -25.374189 3.524211) (layer "F.Fab") (width 0.5) (tstamp f59dd135-a53d-4dd3-823a-179f34e658fd))
  (fp_line (start -26.9619 -3.629978) (end -26.9619 -0.937789) (layer "F.Fab") (width 0.5) (tstamp ffd43a4a-106e-4366-b939-fe7fe787f471))
  (fp_arc (start -25.475789 3.524211) (mid -26.553569 3.07778) (end -27 2) (layer "F.Fab") (width 0.5) (tstamp a292821b-94de-419d-84a2-3950382b938a))
  (fp_arc (start 29.769422 2) (mid 29.322991 3.07778) (end 28.245211 3.524211) (layer "F.Fab") (width 0.5) (tstamp ac4421be-3d93-422f-8c08-456ca5e2ff05))
  (fp_arc (start -26.9619 -3.629978) (mid -26.515469 -4.707758) (end -25.437689 -5.154189) (layer "F.Fab") (width 0.5) (tstamp bda0a9e6-286f-40d4-bc03-5fdfd14aa2fa))
  (fp_arc (start 28.283311 -5.154189) (mid 29.361091 -4.707758) (end 29.807522 -3.629978) (layer "F.Fab") (width 0.5) (tstamp ce351101-eb16-42c3-a79d-3d80bf8fde4d))
)
