(module SILABS_CP2102N-A02-GQFN20R (layer F.Cu) (tedit 62532848)
  (fp_text reference REF** (at -0.168 -2.8064) (layer F.SilkS)
    (effects (font (size 0.64 0.64) (thickness 0.15)))
  )
  (fp_text value SILABS_CP2102N-A02-GQFN20R (at 8.1664 2.6936) (layer F.Fab)
    (effects (font (size 0.64 0.64) (thickness 0.15)))
  )
  (fp_line (start 2.25 2.25) (end -2.25 2.25) (layer F.CrtYd) (width 0.05))
  (fp_line (start 2.25 -2.25) (end 2.25 2.25) (layer F.CrtYd) (width 0.05))
  (fp_line (start -2.25 -2.25) (end 2.25 -2.25) (layer F.CrtYd) (width 0.05))
  (fp_line (start -2.25 2.25) (end -2.25 -2.25) (layer F.CrtYd) (width 0.05))
  (fp_circle (center -2.5 -1.3) (end -2.4 -1.3) (layer F.Fab) (width 0.2))
  (fp_circle (center -2.5 -1.3) (end -2.4 -1.3) (layer F.SilkS) (width 0.2))
  (fp_line (start 1.72 1.72) (end 1.22 1.72) (layer F.SilkS) (width 0.127))
  (fp_line (start 1.72 1.22) (end 1.72 1.72) (layer F.SilkS) (width 0.127))
  (fp_line (start -1.72 1.72) (end -1.72 1.22) (layer F.SilkS) (width 0.127))
  (fp_line (start -1.22 1.72) (end -1.72 1.72) (layer F.SilkS) (width 0.127))
  (fp_line (start 1.72 -1.72) (end 1.72 -1.22) (layer F.SilkS) (width 0.127))
  (fp_line (start 1.22 -1.72) (end 1.72 -1.72) (layer F.SilkS) (width 0.127))
  (fp_line (start -1.72 -1.72) (end -1.22 -1.72) (layer F.SilkS) (width 0.127))
  (fp_line (start -1.72 -1.22) (end -1.72 -1.72) (layer F.SilkS) (width 0.127))
  (fp_line (start 1.5 1.5) (end -1.5 1.5) (layer F.Fab) (width 0.127))
  (fp_line (start 1.5 -1.5) (end 1.5 1.5) (layer F.Fab) (width 0.127))
  (fp_line (start -1.5 -1.5) (end 1.5 -1.5) (layer F.Fab) (width 0.127))
  (fp_line (start -1.5 1.5) (end -1.5 -1.5) (layer F.Fab) (width 0.127))
  (fp_poly (pts (xy -0.85 0.1) (xy -0.1 0.1) (xy -0.1 0.85) (xy -0.85 0.85)) (layer F.Paste) (width 0.01))
  (fp_poly (pts (xy 0.1 -0.85) (xy 0.85 -0.85) (xy 0.85 -0.1) (xy 0.1 -0.1)) (layer F.Paste) (width 0.01))
  (fp_poly (pts (xy -0.85 -0.85) (xy -0.1 -0.85) (xy -0.1 -0.1) (xy -0.85 -0.1)) (layer F.Paste) (width 0.01))
  (fp_poly (pts (xy 0.1 0.1) (xy 0.85 0.1) (xy 0.85 0.85) (xy 0.1 0.85)) (layer F.Paste) (width 0.01))
  (pad 1 smd rect (at -1.25 -1.25) (size 0.3 0.3) (layers F.Cu F.Paste F.Mask))
  (pad 2 smd rect (at -1.55 -0.75) (size 0.9 0.3) (layers F.Cu F.Paste F.Mask))
  (pad 3 smd rect (at -1.55 -0.25) (size 0.9 0.3) (layers F.Cu F.Paste F.Mask))
  (pad 4 smd rect (at -1.55 0.25) (size 0.9 0.3) (layers F.Cu F.Paste F.Mask))
  (pad 5 smd rect (at -1.55 0.75) (size 0.9 0.3) (layers F.Cu F.Paste F.Mask))
  (pad 6 smd rect (at -1.25 1.25) (size 0.3 0.3) (layers F.Cu F.Paste F.Mask))
  (pad 7 smd rect (at -0.75 1.55 90) (size 0.9 0.3) (layers F.Cu F.Paste F.Mask))
  (pad 8 smd rect (at -0.25 1.55 90) (size 0.9 0.3) (layers F.Cu F.Paste F.Mask))
  (pad 9 smd rect (at 0.25 1.55 90) (size 0.9 0.3) (layers F.Cu F.Paste F.Mask))
  (pad 10 smd rect (at 0.75 1.55 90) (size 0.9 0.3) (layers F.Cu F.Paste F.Mask))
  (pad 11 smd rect (at 1.25 1.25 90) (size 0.3 0.3) (layers F.Cu F.Paste F.Mask))
  (pad 12 smd rect (at 1.55 0.75 180) (size 0.9 0.3) (layers F.Cu F.Paste F.Mask))
  (pad 13 smd rect (at 1.55 0.25 180) (size 0.9 0.3) (layers F.Cu F.Paste F.Mask))
  (pad 14 smd rect (at 1.55 -0.25 180) (size 0.9 0.3) (layers F.Cu F.Paste F.Mask))
  (pad 15 smd rect (at 1.55 -0.75 180) (size 0.9 0.3) (layers F.Cu F.Paste F.Mask))
  (pad 16 smd rect (at 1.25 -1.25 180) (size 0.3 0.3) (layers F.Cu F.Paste F.Mask))
  (pad 17 smd rect (at 0.75 -1.55 270) (size 0.9 0.3) (layers F.Cu F.Paste F.Mask))
  (pad 18 smd rect (at 0.25 -1.55 270) (size 0.9 0.3) (layers F.Cu F.Paste F.Mask))
  (pad 19 smd rect (at -0.25 -1.55 270) (size 0.9 0.3) (layers F.Cu F.Paste F.Mask))
  (pad 20 smd rect (at -0.75 -1.55 270) (size 0.9 0.3) (layers F.Cu F.Paste F.Mask))
  (pad 21 smd rect (at 0 0 270) (size 1.8 1.8) (layers F.Cu F.Mask))
  (model ${CUSTOMPRETTY}/CP2102N-A02-GQFN20R.stp
    (offset (xyz 0 0 -0.1))
    (scale (xyz 1 1 1))
    (rotate (xyz -90 0 0))
  )
)
