(module Symbol-NO_Network_Connection (layer F.Cu) (tedit 5FE50DCA)
  (fp_text reference REF** (at 0.1905 0.1905) (layer F.Fab) hide
    (effects (font (size 1 1) (thickness 0.15)))
  )
  (fp_text value ~ (at -15.1765 12.5095) (layer F.Fab) hide
    (effects (font (size 1 1) (thickness 0.15)))
  )
  (fp_line (start 0 -2.032) (end 0 -2.8575) (layer F.SilkS) (width 0.75))
  (fp_line (start -6.1595 0) (end -6.1595 2.9845) (layer F.SilkS) (width 0.75))
  (fp_line (start 5.7785 0) (end 5.7785 2.9845) (layer F.SilkS) (width 0.75))
  (fp_line (start -2.032 0) (end -11.557 0) (layer F.SilkS) (width 0.75))
  (fp_line (start 2.643 7.668) (end 2.643 4.318) (layer F.SilkS) (width 0.75))
  (fp_line (start 8.739 7.668) (end 2.643 7.668) (layer F.SilkS) (width 0.75))
  (fp_line (start 8.739 3.096) (end 8.739 7.668) (layer F.SilkS) (width 0.75))
  (fp_line (start 5.207 3.096) (end 8.739 3.096) (layer F.SilkS) (width 0.75))
  (fp_line (start -3.223 -7.476) (end 2.873 -7.476) (layer F.SilkS) (width 0.75))
  (fp_line (start 2.873 -7.476) (end 2.873 -4.8895) (layer F.SilkS) (width 0.75))
  (fp_line (start 0.9525 -2.904) (end -0.8255 -2.904) (layer F.SilkS) (width 0.75))
  (fp_line (start -3.223 -5.3975) (end -3.223 -7.476) (layer F.SilkS) (width 0.75))
  (fp_line (start -3.031 7.668) (end -9.127 7.668) (layer F.SilkS) (width 0.75))
  (fp_line (start -9.127 3.096) (end -5.1435 3.096) (layer F.SilkS) (width 0.75))
  (fp_line (start -3.031 4.7625) (end -3.031 7.668) (layer F.SilkS) (width 0.75))
  (fp_line (start -9.127 7.668) (end -9.127 3.096) (layer F.SilkS) (width 0.75))
  (fp_line (start 5.0165 -5.207) (end -4.699 4.5085) (layer F.SilkS) (width 1.5))
  (fp_line (start -4.8895 -5.1435) (end 4.826 4.572) (layer F.SilkS) (width 1.5))
  (fp_line (start 10.287 0) (end 2.0955 0) (layer F.SilkS) (width 0.75))
)
