(module TSOP-32_14x8mm_P1.1mm (layer F.Cu) (tedit 5FAAE205)
  (fp_text reference REF** (at 0 0.5) (layer F.SilkS)
    (effects (font (size 1 1) (thickness 0.15)))
  )
  (fp_text value TSOP-32_14x8mm_P1.1mm (at 0 -0.5) (layer F.Fab)
    (effects (font (size 1 1) (thickness 0.15)))
  )
  (fp_line (start 0.80772 9.50416) (end 6.70772 9.50416) (layer F.SilkS) (width 0.12))
  (fp_line (start 0.80772 9.50416) (end -8.08736 9.50416) (layer F.SilkS) (width 0.12))
  (fp_line (start 0.80772 1.18416) (end 6.70772 1.18416) (layer F.SilkS) (width 0.12))
  (fp_line (start -8.08948 2.34416) (end -7.08948 1.34416) (layer F.Fab) (width 0.1))
  (fp_line (start 0.80772 1.18416) (end -9.54024 1.18416) (layer F.SilkS) (width 0.12))
  (fp_line (start -9.63948 9.59416) (end 8.25772 9.59416) (layer F.CrtYd) (width 0.05))
  (fp_line (start 6.70772 9.34416) (end -8.08948 9.34416) (layer F.Fab) (width 0.1))
  (fp_line (start -8.08948 9.34416) (end -8.08948 2.34416) (layer F.Fab) (width 0.1))
  (fp_line (start 6.70772 1.34416) (end 6.70772 9.34416) (layer F.Fab) (width 0.1))
  (fp_line (start 8.25772 1.09416) (end -9.63948 1.09416) (layer F.CrtYd) (width 0.05))
  (fp_line (start -7.08948 1.34416) (end 6.70772 1.34416) (layer F.Fab) (width 0.1))
  (fp_line (start 8.25772 9.59416) (end 8.25772 1.09416) (layer F.CrtYd) (width 0.05))
  (fp_line (start -9.63948 1.09416) (end -9.63948 9.59416) (layer F.CrtYd) (width 0.05))
  (pad 7 smd roundrect (at -8.61448 4.59416) (size 1.55 0.3) (layers F.Cu F.Paste F.Mask) (roundrect_rratio 0.25))
  (pad 4 smd roundrect (at -8.61448 3.09416) (size 1.55 0.3) (layers F.Cu F.Paste F.Mask) (roundrect_rratio 0.25))
  (pad 6 smd roundrect (at -8.61448 4.09416) (size 1.55 0.3) (layers F.Cu F.Paste F.Mask) (roundrect_rratio 0.25))
  (pad 8 smd roundrect (at -8.61448 5.09416) (size 1.55 0.3) (layers F.Cu F.Paste F.Mask) (roundrect_rratio 0.25))
  (pad 9 smd roundrect (at -8.61448 5.59416) (size 1.55 0.3) (layers F.Cu F.Paste F.Mask) (roundrect_rratio 0.25))
  (pad 10 smd roundrect (at -8.61448 6.09416) (size 1.55 0.3) (layers F.Cu F.Paste F.Mask) (roundrect_rratio 0.25))
  (pad 11 smd roundrect (at -8.61448 6.59416) (size 1.55 0.3) (layers F.Cu F.Paste F.Mask) (roundrect_rratio 0.25))
  (pad 12 smd roundrect (at -8.61448 7.09416) (size 1.55 0.3) (layers F.Cu F.Paste F.Mask) (roundrect_rratio 0.25))
  (pad 13 smd roundrect (at -8.61448 7.59416) (size 1.55 0.3) (layers F.Cu F.Paste F.Mask) (roundrect_rratio 0.25))
  (pad 1 smd roundrect (at -8.61448 1.59416) (size 1.55 0.3) (layers F.Cu F.Paste F.Mask) (roundrect_rratio 0.25))
  (pad 2 smd roundrect (at -8.61448 2.09416) (size 1.55 0.3) (layers F.Cu F.Paste F.Mask) (roundrect_rratio 0.25))
  (pad 3 smd roundrect (at -8.61448 2.59416) (size 1.55 0.3) (layers F.Cu F.Paste F.Mask) (roundrect_rratio 0.25))
  (pad 5 smd roundrect (at -8.61448 3.59416) (size 1.55 0.3) (layers F.Cu F.Paste F.Mask) (roundrect_rratio 0.25))
  (pad 29 smd roundrect (at 7.23272 3.09416) (size 1.55 0.3) (layers F.Cu F.Paste F.Mask) (roundrect_rratio 0.25))
  (pad 18 smd roundrect (at 7.23272 8.59416) (size 1.55 0.3) (layers F.Cu F.Paste F.Mask) (roundrect_rratio 0.25))
  (pad 21 smd roundrect (at 7.23272 7.09416) (size 1.55 0.3) (layers F.Cu F.Paste F.Mask) (roundrect_rratio 0.25))
  (pad 32 smd roundrect (at 7.23272 1.59416) (size 1.55 0.3) (layers F.Cu F.Paste F.Mask) (roundrect_rratio 0.25))
  (pad 17 smd roundrect (at 7.23272 9.09416) (size 1.55 0.3) (layers F.Cu F.Paste F.Mask) (roundrect_rratio 0.25))
  (pad 26 smd roundrect (at 7.23272 4.59416) (size 1.55 0.3) (layers F.Cu F.Paste F.Mask) (roundrect_rratio 0.25))
  (pad 31 smd roundrect (at 7.23272 2.09416) (size 1.55 0.3) (layers F.Cu F.Paste F.Mask) (roundrect_rratio 0.25))
  (pad 14 smd roundrect (at -8.61448 8.09416) (size 1.55 0.3) (layers F.Cu F.Paste F.Mask) (roundrect_rratio 0.25))
  (pad 22 smd roundrect (at 7.23272 6.59416) (size 1.55 0.3) (layers F.Cu F.Paste F.Mask) (roundrect_rratio 0.25))
  (pad 23 smd roundrect (at 7.23272 6.09416) (size 1.55 0.3) (layers F.Cu F.Paste F.Mask) (roundrect_rratio 0.25))
  (pad 30 smd roundrect (at 7.23272 2.59416) (size 1.55 0.3) (layers F.Cu F.Paste F.Mask) (roundrect_rratio 0.25))
  (pad 16 smd roundrect (at -8.61448 9.09416) (size 1.55 0.3) (layers F.Cu F.Paste F.Mask) (roundrect_rratio 0.25))
  (pad 28 smd roundrect (at 7.23272 3.59416) (size 1.55 0.3) (layers F.Cu F.Paste F.Mask) (roundrect_rratio 0.25))
  (pad 15 smd roundrect (at -8.61448 8.59416) (size 1.55 0.3) (layers F.Cu F.Paste F.Mask) (roundrect_rratio 0.25))
  (pad 19 smd roundrect (at 7.23272 8.09416) (size 1.55 0.3) (layers F.Cu F.Paste F.Mask) (roundrect_rratio 0.25))
  (pad 20 smd roundrect (at 7.23272 7.59416) (size 1.55 0.3) (layers F.Cu F.Paste F.Mask) (roundrect_rratio 0.25))
  (pad 24 smd roundrect (at 7.23272 5.59416) (size 1.55 0.3) (layers F.Cu F.Paste F.Mask) (roundrect_rratio 0.25))
  (pad 25 smd roundrect (at 7.23272 5.09416) (size 1.55 0.3) (layers F.Cu F.Paste F.Mask) (roundrect_rratio 0.25))
  (pad 27 smd roundrect (at 7.23272 4.09416) (size 1.55 0.3) (layers F.Cu F.Paste F.Mask) (roundrect_rratio 0.25))
)
