(module VISLIGHT_MPIN (layer F.Cu) (tedit 6087A566)
  (fp_text reference REF** (at 0 -4.3688) (layer F.Fab) hide
    (effects (font (size 1 1) (thickness 0.15)))
  )
  (fp_text value VISLIGHT_MPIN (at 0 -4.3608) (layer F.Fab) hide
    (effects (font (size 1 1) (thickness 0.15)))
  )
  (fp_line (start -43 0) (end 43 0) (layer Dwgs.User) (width 0.12))
  (fp_line (start -43 0) (end -43 -3.9878) (layer Dwgs.User) (width 0.12))
  (fp_line (start -43 -3.9878) (end 43 -3.9878) (layer Dwgs.User) (width 0.12))
  (fp_line (start 43 0) (end 43 -3.9878) (layer Dwgs.User) (width 0.12))
  (fp_line (start 42.164 -1.9558) (end 42.164 0) (layer F.CrtYd) (width 0.12))
  (fp_line (start 42.164 0) (end -38.1 0) (layer F.CrtYd) (width 0.12))
  (fp_line (start -38.1 0) (end -38.1 -2.032) (layer F.CrtYd) (width 0.12))
  (fp_line (start -38.1 -2.032) (end -36.703 -2.032) (layer F.CrtYd) (width 0.12))
  (fp_line (start -36.703 -2.032) (end -36.703 -0.1524) (layer F.CrtYd) (width 0.12))
  (fp_line (start -36.703 -0.1524) (end -18.69948 -0.1524) (layer F.CrtYd) (width 0.12))
  (fp_line (start -18.69948 -0.1524) (end -18.69948 -2.05232) (layer F.CrtYd) (width 0.12))
  (fp_line (start -18.69948 -2.05232) (end -17.21612 -2.05232) (layer F.CrtYd) (width 0.12))
  (fp_line (start -17.21612 -2.05232) (end -17.21612 -0.1524) (layer F.CrtYd) (width 0.12))
  (fp_line (start -17.21612 -0.1524) (end 21.13788 -0.1524) (layer F.CrtYd) (width 0.12))
  (fp_line (start 21.13788 -0.1524) (end 21.13788 -1.9812) (layer F.CrtYd) (width 0.12))
  (fp_line (start 21.13788 -1.9812) (end 22.7076 -1.9812) (layer F.CrtYd) (width 0.12))
  (fp_line (start 22.7076 -1.9812) (end 22.7076 -0.1524) (layer F.CrtYd) (width 0.12))
  (fp_line (start 22.7076 -0.1524) (end 40.6146 -0.1524) (layer F.CrtYd) (width 0.12))
  (fp_line (start 40.6146 -0.1524) (end 40.6146 -1.9558) (layer F.CrtYd) (width 0.12))
  (fp_line (start 40.6146 -1.9558) (end 42.164 -1.9558) (layer F.CrtYd) (width 0.12))
  (fp_line (start 2.353 0) (end 2.353 -2.85496) (layer F.Fab) (width 0.12))
  (fp_poly (pts (xy 3.27248 -0.1778) (xy 1.44876 -0.1778) (xy 1.44876 -2.86004) (xy 3.27248 -2.86004)) (layer Dwgs.User) (width 0.1))
  (fp_line (start 3.27248 -2.85496) (end 1.45892 -2.85496) (layer F.Fab) (width 0.12))
  (pad "" np_thru_hole circle (at -37.3728 -1.27) (size 1 1) (drill 1) (layers *.Cu *.Mask))
  (pad "" np_thru_hole circle (at -17.9438 -1.27) (size 1 1) (drill 1) (layers *.Cu *.Mask))
  (pad "" np_thru_hole circle (at 21.8952 -1.27) (size 1 1) (drill 1) (layers *.Cu *.Mask))
  (pad "" np_thru_hole circle (at 41.4652 -1.27) (size 1 1) (drill 1) (layers *.Cu *.Mask))
)
